module gitlab.com/nicolebroyak/adventofcode2022/9

replace gitlab.com/nicolebroyak/adventofcode2022/utils v0.0.1 => ../utils

go 1.19

require (
	github.com/stretchr/testify v1.8.1
	gitlab.com/nicolebroyak/adventofcode2022/utils v0.0.1
)

require (
	github.com/davecgh/go-spew v1.1.1 // indirect
	github.com/pmezard/go-difflib v1.0.0 // indirect
	gopkg.in/yaml.v3 v3.0.1 // indirect
)
